^G:\VISUALNAYA STYDIYA\SBHWCLASSES\SBHWCLASSES\X64\DEBUG\SBHWCLASSES.OBJ
G:\VISUALNAYA STYDIYA\SBHWCLASSES\X64\DEBUG\SBHWCLASSES.EXE
G:\VISUALNAYA STYDIYA\SBHWCLASSES\SBHWCLASSES\X64\DEBUG\SBHWCLASSES.ILK
G:\VISUALNAYA STYDIYA\SBHWCLASSES\X64\DEBUG\SBHWCLASSES.PDB
